<?xml version="1.0" encoding="iso-8859-1"?>
<!-- Generator: Adobe Illustrator 19.0.0, SVG Export Plug-In . SVG Version: 6.00 Build 0)  -->
<svg version="1.1" id="Layer_1" xmlns="http://www.w3.org/2000/svg" xmlns:xlink="http://www.w3.org/1999/xlink" x="0px" y="0px"
	 viewBox="0 0 40 40" style="enable-background:new 0 0 40 40;" xml:space="preserve">
<g id="Compliance_2_">
	<path id="XMLID_237_" style="fill:#212934;" d="M30.478,12.119l-0.004-1.29l-0.622-0.108c-2.186-0.378-6.355-1.28-9.728-3.062
		l-0.351-0.185l-0.351,0.185c-3.371,1.782-7.541,2.684-9.727,3.062l-0.622,0.108L9.071,12.12
		c-0.035,4.641-0.119,15.511,10.371,20.695l0.332,0.164l0.332-0.164C30.598,27.63,30.514,16.761,30.478,12.119z M19.774,31.302
		c-9.313-4.835-9.236-14.861-9.203-19.17l0.001-0.043c2.632-0.492,6.147-1.377,9.202-2.921c3.056,1.544,6.571,2.43,9.203,2.921
		l0.001,0.042C29.012,16.44,29.089,26.466,19.774,31.302z"/>
	<path id="XMLID_236_" style="fill:#212934;" d="M23.586,15.909c-0.143,0.143-3.204,3.233-4.969,6.324l-2.655-2.655
		c-0.293-0.293-0.768-0.293-1.061,0c-0.293,0.292-0.293,0.768,0,1.061l4.125,4.125l0.457-0.958c1.498-3.136,5.129-6.803,5.165-6.839
		c0.292-0.293,0.291-0.768-0.002-1.061C24.353,15.615,23.878,15.615,23.586,15.909z"/>
</g>
</svg>
