<?xml version="1.0" encoding="iso-8859-1"?>
<!-- Generator: Adobe Illustrator 19.0.0, SVG Export Plug-In . SVG Version: 6.00 Build 0)  -->
<svg version="1.1" id="Layer_1" xmlns="http://www.w3.org/2000/svg" xmlns:xlink="http://www.w3.org/1999/xlink" x="0px" y="0px"
	 viewBox="0 0 80 80" style="enable-background:new 0 0 80 80;" xml:space="preserve">
<g>
	<g>
		<circle id="XMLID_10_" style="fill:#0066FF;" cx="40" cy="40" r="40"/>
	</g>
	<g id="XMLID_68_">
		<path id="XMLID_69_" style="fill:#FFFFFF;" d="M48.031,53.942l-0.2,5.238c-2.694,1.297-5.82,1.946-9.378,1.946
			c-6.186,0-11.057-1.895-14.616-5.686c-3.559-3.791-5.337-8.496-5.337-14.117c0-4.157,1.039-7.964,3.117-11.423
			c2.078-3.458,4.871-6.161,8.38-8.106c3.508-1.946,7.341-2.918,11.498-2.918c5.52,0,10.234,1.721,14.142,5.163
			c3.907,3.442,5.861,7.99,5.861,13.643c0,3.891-0.956,7.058-2.869,9.502c-1.913,2.444-4.165,3.666-6.759,3.666
			c-3.592,0-5.903-1.679-6.934-5.038c-1.53,3.359-4.04,5.038-7.532,5.038c-2.594,0-4.647-0.955-6.161-2.868
			c-1.514-1.912-2.27-4.298-2.27-7.158c0-3.292,0.98-5.977,2.943-8.056c1.962-2.078,4.323-3.117,7.083-3.117
			c2.66,0,4.639,1.147,5.936,3.442c0.066-0.731,0.132-1.829,0.2-3.292h4.889l-0.349,3.242c-0.3,4.49-0.449,7.1-0.449,7.832
			c0,3.525,0.947,5.288,2.843,5.288c1.263,0,2.311-0.731,3.142-2.195c0.831-1.463,1.247-3.425,1.247-5.886
			c0-4.655-1.422-8.197-4.265-10.625c-2.843-2.427-6.493-3.641-10.949-3.641c-4.955,0-9.087,1.738-12.396,5.212
			c-3.309,3.476-4.963,7.624-4.963,12.446c0,4.589,1.404,8.189,4.215,10.8c2.809,2.61,6.26,3.916,10.35,3.916
			C41.846,56.187,45.038,55.439,48.031,53.942z M38.953,46.41c1.197,0,2.319-0.44,3.367-1.322c1.048-0.88,1.771-2.136,2.17-3.766
			c0-0.232,0.008-0.59,0.025-1.073c0.016-0.482,0.041-0.839,0.075-1.072c-0.233-1.662-0.766-2.926-1.596-3.791
			c-0.832-0.864-1.896-1.297-3.193-1.297c-1.53,0-2.818,0.64-3.866,1.92c-1.048,1.281-1.571,2.985-1.571,5.113
			c0,1.596,0.44,2.877,1.322,3.841C36.566,45.928,37.655,46.41,38.953,46.41z"/>
	</g>
</g>
</svg>
