<?xml version="1.0" encoding="iso-8859-1"?>
<!-- Generator: Adobe Illustrator 19.0.0, SVG Export Plug-In . SVG Version: 6.00 Build 0)  -->
<svg version="1.1" id="Layer_1" xmlns="http://www.w3.org/2000/svg" xmlns:xlink="http://www.w3.org/1999/xlink" x="0px" y="0px"
	 viewBox="0 0 40 40" style="enable-background:new 0 0 40 40;" xml:space="preserve">
<g id="Marketing_2_">
	<path id="XMLID_239_" style="fill:#212934;" d="M29.389,25.381c0-0.001,0-0.001-0.001-0.002L22.929,8.167
		c-0.146-0.388-0.576-0.584-0.966-0.439c-0.388,0.146-0.584,0.578-0.438,0.966l0.402,1.071L9.258,20.832
		c-0.053,0.046-0.115,0.069-0.195,0.06L3.739,20.24c-0.255-0.032-0.518,0.075-0.681,0.281c-0.162,0.206-0.204,0.482-0.112,0.727
		l3.382,9.012c0.092,0.246,0.306,0.425,0.563,0.474c0.046,0.009,0.093,0.013,0.139,0.013c0.211,0,0.415-0.089,0.559-0.25
		l3.579-3.992c0.048-0.053,0.116-0.084,0.188-0.084h4.037v2.602c0,0.965,0.785,1.75,1.75,1.75h5.286c0.965,0,1.75-0.785,1.75-1.75
		v-2.602h3.998l0.402,1.071c0.113,0.301,0.398,0.487,0.702,0.487c0.088,0,0.177-0.016,0.264-0.048
		c0.388-0.146,0.584-0.578,0.438-0.966L29.389,25.381z M22.679,29.023c0,0.138-0.112,0.25-0.25,0.25h-5.286
		c-0.138,0-0.25-0.112-0.25-0.25v-2.602h5.786V29.023z M11.355,24.921c-0.496,0-0.971,0.211-1.304,0.582l-2.754,3.072l-2.513-6.696
		l4.096,0.501c0.488,0.061,0.989-0.092,1.363-0.419l12.245-10.696l5.125,13.656H11.355z"/>
	<path id="XMLID_238_" style="fill:#212934;" d="M27.789,12.738c0.173,0,0.347-0.06,0.488-0.181l3.685-3.159
		c0.314-0.27,0.351-0.743,0.081-1.058s-0.742-0.35-1.058-0.081l-3.685,3.158c-0.314,0.27-0.351,0.743-0.081,1.058
		C27.368,12.649,27.578,12.738,27.789,12.738z"/>
	<path id="XMLID_237_" style="fill:#212934;" d="M28.677,16.571c0.113,0.301,0.398,0.487,0.702,0.487
		c0.088,0,0.177-0.016,0.264-0.048l4.544-1.705c0.388-0.146,0.584-0.578,0.438-0.966c-0.146-0.388-0.577-0.583-0.966-0.438
		l-4.544,1.705C28.727,15.751,28.531,16.183,28.677,16.571z"/>
	<path id="XMLID_236_" style="fill:#212934;" d="M35.901,19.893h-4.853c-0.414,0-0.75,0.336-0.75,0.75s0.336,0.75,0.75,0.75h4.853
		c0.414,0,0.75-0.336,0.75-0.75S36.315,19.893,35.901,19.893z"/>
</g>
</svg>
